  157671.5781250  428974.4062500       1.0
  162475.2656250  432532.0312500       1.0 
  162348.8437500  434663.0000000       1.0
  157382.6250000  433741.9687500       1.0
  156082.3906250  429480.0625000       1.0
    163667.1562500  434933.8750000        2.0
    164245.0468750  432315.3125000        2.0
    168850.0781250  433579.4375000        2.0
    169102.9062500  435836.8125000        2.0
  170096.2500000  436053.6250000       3.0
  169843.4218750  433091.9375000       3.0
  176651.6562500  432459.8750000       3.0
  177301.7812500  435331.2500000       3.0
