
UZ Soil Profile properties
==========================

Profile name : Grid code = 11    , Grid code = 11
-------------------------------------------------


Cell    Cell       Disper-    Depth[m]  Soil Name
number  height[m]  sivity[m]                 < DBase Name
--------------------------------------------------------------------------------
                               0.0000
  1     0.0500      0.0000               JB-1
--------------------------     0.0500      <- C:\devel_nils\public\model_mikeshe\tests\Karup\MainModel\MAPS\DKsoils.uzs
  2     0.0500      0.0000               -
--------------------------     0.1000
  3     0.0625      0.0000               -
--------------------------     0.1625
  4     0.0875      0.0000               -
--------------------------     0.2500
  5     0.1000      0.0000               -
--------------------------     0.3500
  6     0.1000      0.0000               -
--------------------------     0.4500
  7     0.1000      0.0000               -
--------------------------     0.5500
  8     0.1000      0.0000               -
--------------------------     0.6500
  9     0.1375      0.0000               -
--------------------------     0.7875
 10     0.2125      0.0000               -
--------------------------     1.0000
 11     0.2500      0.0000               -
--------------------------     1.2500
 12     0.2500      0.0000               -
--------------------------     1.5000
 13     0.2500      0.0000               -
--------------------------     1.7500
 14     0.2500      0.0000               -
--------------------------     2.0000
 15     0.2500      0.0000               -
--------------------------     2.2500
 16     0.2500      0.0000               -
--------------------------     2.5000
 17     0.2500      0.0000               -
--------------------------     2.7500
 18     0.2500      0.0000               -
--------------------------     3.0000
 19     0.2500      0.0000               -
--------------------------     3.2500
 20     0.3125      0.0000               -
--------------------------     3.5625
 21     0.4375      0.0000               -
--------------------------     4.0000
 22     0.5000      0.0000               -
--------------------------     4.5000
 23     0.5000      0.0000               -
--------------------------     5.0000
 24     0.5000      0.0000               -
--------------------------     5.5000
 25     0.5000      0.0000               -
--------------------------     6.0000
 26     0.5000      0.0000               -
--------------------------     6.5000
 27     0.5000      0.0000               -
--------------------------     7.0000
 28     0.5000      0.0000               -
--------------------------     7.5000
 29     0.5000      0.0000               -
--------------------------     8.0000
 30     0.5000      0.0000               -
--------------------------     8.5000
 31     0.6250      0.0000               -
--------------------------     9.1250
 32     0.8750      0.0000               -
--------------------------    10.0000
 33     1.0000      0.0000               -
--------------------------    11.0000
 34     1.0000      0.0000               -
--------------------------    12.0000
 35     1.0000      0.0000               -
--------------------------    13.0000
 36     1.0000      0.0000               -
--------------------------    14.0000
 37     1.0000      0.0000               -
--------------------------    15.0000
 38     1.0000      0.0000               -
--------------------------    16.0000
 39     1.0000      0.0000               -
--------------------------    17.0000
 40     1.0000      0.0000               -
--------------------------    18.0000
 41     1.0000      0.0000               -
--------------------------    19.0000
 42     1.0000      0.0000               -
--------------------------    20.0000
 43     1.0000      0.0000               -
--------------------------    21.0000
 44     1.0000      0.0000               -
--------------------------    22.0000
 45     1.0000      0.0000               -
--------------------------    23.0000
 46     1.0000      0.0000               -
--------------------------    24.0000
 47     1.0000      0.0000               -
--------------------------    25.0000
 48     1.0000      0.0000               -
--------------------------    26.0000
 49     1.0000      0.0000               -
--------------------------    27.0000
 50     1.0000      0.0000               -
--------------------------    28.0000
 51     1.0000      0.0000               -
--------------------------    29.0000
 52     1.0000      0.0000               -
--------------------------    30.0000
 53     1.0000      0.0000               -
--------------------------    31.0000
 54     1.0000      0.0000               -
--------------------------    32.0000
 55     1.0000      0.0000               -
--------------------------    33.0000
 56     1.0000      0.0000               -
--------------------------    34.0000
 57     1.0000      0.0000               -
--------------------------    35.0000
 58     1.0000      0.0000               -
--------------------------    36.0000
 59     1.0000      0.0000               -
--------------------------    37.0000
 60     1.0000      0.0000               -
--------------------------    38.0000
 61     1.0000      0.0000               -
--------------------------    39.0000
 62     1.0000      0.0000               -
--------------------------    40.0000
 63     1.0000      0.0000               -
--------------------------    41.0000
 64     1.0000      0.0000               -
--------------------------    42.0000
 65     1.0000      0.0000               -
--------------------------    43.0000
 66     1.0000      0.0000               -
--------------------------    44.0000
 67     1.0000      0.0000               -
--------------------------    45.0000
 68     1.0000      0.0000               -
--------------------------    46.0000
 69     1.0000      0.0000               -
--------------------------    47.0000
 70     1.0000      0.0000               -
--------------------------    48.0000
 71     1.0000      0.0000               -
--------------------------    49.0000
 72     1.0000      0.0000               -
--------------------------    50.0000
 73     1.0000      0.0000               -
--------------------------    51.0000
 74     1.0000      0.0000               -
--------------------------    52.0000
 75     1.0000      0.0000               -
--------------------------    53.0000
 76     1.0000      0.0000               -
--------------------------    54.0000
 77     1.0000      0.0000               -
--------------------------    55.0000
 78     1.0000      0.0000               -
--------------------------    56.0000
 79     1.0000      0.0000               -
--------------------------    57.0000
 80     1.0000      0.0000               -
--------------------------    58.0000
 81     1.0000      0.0000               -
--------------------------    59.0000
 82     1.0000      0.0000               -
--------------------------    60.0000
 83     1.0000      0.0000               -
--------------------------    61.0000
 84     1.0000      0.0000               -
--------------------------    62.0000
 85     1.0000      0.0000               -
--------------------------    63.0000
 86     1.0000      0.0000               -
--------------------------    64.0000
 87     1.0000      0.0000               -
--------------------------    65.0000
 88     1.0000      0.0000               -
--------------------------    66.0000
 89     1.0000      0.0000               -
--------------------------    67.0000
 90     1.0000      0.0000               -
--------------------------    68.0000
 91     1.0000      0.0000               -
--------------------------    69.0000
 92     1.0000      0.0000               -
--------------------------    70.0000
 93     1.0000      0.0000               -
--------------------------    71.0000
 94     1.0000      0.0000               -
--------------------------    72.0000
 95     1.0000      0.0000               -
--------------------------    73.0000
 96     1.0000      0.0000               -
--------------------------    74.0000
 97     1.0000      0.0000               -
--------------------------    75.0000
 98     1.0000      0.0000               -
--------------------------    76.0000
 99     1.0000      0.0000               -
--------------------------    77.0000
100     1.0000      0.0000               -
--------------------------    78.0000
101     1.0000      0.0000               -
--------------------------    79.0000
102     1.0000      0.0000               -
--------------------------    80.0000
103     1.0000      0.0000               -
--------------------------    81.0000
104     1.0000      0.0000               -
--------------------------    82.0000
105     1.0000      0.0000               -
--------------------------    83.0000
106     1.0000      0.0000               -
--------------------------    84.0000
107     1.0000      0.0000               -
--------------------------    85.0000
108     1.0000      0.0000               -
--------------------------    86.0000
109     1.0000      0.0000               -
--------------------------    87.0000
110     1.0000      0.0000               -
--------------------------    88.0000
111     1.0000      0.0000               -
--------------------------    89.0000
112     1.0000      0.0000               -
--------------------------    90.0000
113     1.0000      0.0000               -
--------------------------    91.0000
114     1.0000      0.0000               -
--------------------------    92.0000
115     1.0000      0.0000               -
--------------------------    93.0000
116     1.0000      0.0000               -
--------------------------    94.0000
117     1.0000      0.0000               -
--------------------------    95.0000
118     1.0000      0.0000               -
--------------------------    96.0000
119     1.0000      0.0000               -
--------------------------    97.0000
120     1.0000      0.0000               -
--------------------------    98.0000
121     1.0000      0.0000               -
--------------------------    99.0000
122     1.0000      0.0000               -
--------------------------   100.0000

--------------------------------------------------------------------------------


 Soil name : JB-1
 - DBase   : C:\devel_nils\public\model_mikeshe\tests\Karup\MainModel\MAPS\DKsoils.uzs
 - Comment : Ref. Daisy man

   General characteristics:

     Effective saturation        :  0.3950000    
     Field Capacity pF,psi[m],Th :   2.000000      -1.000000      0.1755472    
     Wilting Point  pF,psi[m],Th :   4.200000      -158.4892      0.2369896E-01
     Bulk density [kg/m3]        :   1700.000    
     Green & Ampt soil suction
     at wetting front [m]        :  -1.000000    


  Retention curve:
 
    Type of description     : Van Genuchten
    Saturated Water Content :  0.3950000    
    Residual Water Content  :  0.1000000E-01
    Alpha [1/cm]            :  0.6200000E-01
    N                       :   1.445000    
    M                       :  0.3079585    


  Hydraulic conductivity:
 
    Type of description          : Van Genuchten
    Saturated conductivity [m/s] :  0.1400000E-04
    Alpha [1/cm]                 :  0.6200000E-01
    N                            :   1.445000    
    M                            :  0.3079585    
    Shape Factor                 : -0.9730000    



 PROCESSED DATA
 ========================================================
 pF[-]        Psi[m]  Theta[-]    Cap[1/m]       Con[m/s]
-1.000 -0.1000000E-02 0.3949235  0.1100327E+00  0.1123863E-04 
-0.800 -0.1584893E-02 0.3948512  0.1364309E+00  0.1065487E-04 
-0.600 -0.2511887E-02 0.3947108  0.1670699E+00  0.9961586E-05 
-0.400 -0.3981072E-02 0.3944382  0.2044010E+00  0.9146291E-05 
-0.200 -0.6309574E-02 0.3939102  0.2494194E+00  0.8200475E-05 
 0.000 -0.1000000E-01 0.3928919  0.3024625E+00  0.7124100E-05 
 0.200 -0.1584893E-01 0.3909433  0.3632767E+00  0.5932556E-05 
 0.400 -0.2511886E-01 0.3872700  0.4276073E+00  0.4666043E-05 
 0.600 -0.3981071E-01 0.3805329  0.4856101E+00  0.3398585E-05 
 0.800 -0.6309573E-01 0.3687583  0.5186684E+00  0.2237744E-05 
 1.000 -0.9999999E-01 0.3497078  0.5047196E+00  0.1299624E-05 
 1.200 -0.1584893     0.3220801  0.4327514E+00  0.6553090E-06 
 1.400 -0.2511886     0.2870845  0.3218642E+00  0.2878109E-06 
 1.600 -0.3981071     0.2484139  0.2103690E+00  0.1127457E-06 
 1.800 -0.6309572     0.2102723  0.1247724E+00  0.4073098E-07 
 2.000  -1.000000     0.1755472  0.6948901E-01  0.1398774E-07  <=== Field Capacity 
 2.200  -1.584893     0.1454689  0.3729673E-01  0.4665657E-08 
 2.400  -2.511885     0.1201483  0.1961367E-01  0.1531638E-08 
 2.600  -3.981071     0.0991620  0.1020249E-01  0.4985601E-09 
 2.800  -6.309573     0.0819111  0.5276856E-02  0.1615625E-09 
 3.000  -10.00000     0.0677917  0.2721120E-02  0.5223130E-10 
 3.200  -15.84892     0.0562611  0.1401057E-02  0.1686280E-10 
 3.400  -25.11885     0.0468557  0.7208093E-03  0.5438786E-11 
 3.600  -39.81071     0.0391881  0.3706887E-03  0.1752261E-11 
 3.800  -63.09573     0.0329393  0.1905928E-03  0.5635314E-12 
 4.000  -100.0000     0.0278476  0.9798396E-04  0.1806047E-12 
 4.200  -158.4892     0.0236990  0.5037071E-04  0.5747196E-13  <=== Wilting Point 
 4.400  -251.1887     0.0203189  0.2589360E-04  0.1802032E-13 
 4.600  -398.1071     0.0175651  0.1331064E-04  0.5476044E-14 
 4.800  -630.9569     0.0153215  0.6842341E-05  0.1553602E-14 
 5.000  -1000.000     0.0134937  0.3517267E-05  0.3743597E-15 
 5.200  -1584.892     0.0120045  0.1808037E-05  0.5573145E-16 
 5.400  -2511.887     0.0107913  0.9293995E-06  0.2624195E-19 
 5.600  -3981.071     0.0098028  0.4777599E-06  0.2132552E-16 
 5.800  -6309.569     0.0089976  0.2455870E-06  0.6484266E-16 
 6.000  -10000.00     0.0083415  0.1262415E-06  0.1171176E-15 
 6.200  -15848.92     0.0078070  0.6489379E-07  0.1775846E-15 
 6.400  -25118.84     0.0073716  0.3335831E-07  0.2498227E-15 
 6.600  -39810.71     0.0070168  0.1714784E-07  0.3390941E-15 
 6.800  -63095.70     0.0067278  0.8814722E-08  0.4518889E-15 
 6.950  -89125.05     0.0065467  0.5532351E-08  0.5566221E-15 

--------------------------------------------------------------------------------
